<svg xmlns="http://www.w3.org/2000/svg" width="36.057" height="67.041" viewBox="0 0 36.057 67.041">
  <path id="Path_5" data-name="Path 5" d="M30.781,0,0,31.781,30.781,63.563" transform="translate(3.48 1.739)" fill="none" stroke="#fff" stroke-miterlimit="10" stroke-width="5"/>
</svg>
